lab9_v2/lab9-acebu-cagula/program_counter.vcd
$date
	Thu Nov 20 16:53:45 2025
$end
$version
	Icarus Verilog
$end
$timescale
	1ps
$end
$scope module program_counter_tb $end
$var wire 32 ! pc_out [31:0] $end
$var reg 1 " clk $end
$var reg 32 # next_pc [31:0] $end
$var reg 1 $ reset $end
$scope module uut $end
$var wire 1 " clk $end
$var wire 32 % next_pc [31:0] $end
$var wire 1 $ reset $end
$var reg 32 & pc_out [31:0] $end
$upscope $end
$upscope $end
$enddefinitions $end
$comment Show the parameter values. $end
$dumpall
$end
#0
$dumpvars
bx &
b0 %
0$
b0 #
0"
bx !
$end
#3000
1$
#5000
b0 !
b0 &
1"
#10000
0"
#13000
b100 #
b100 %
0$
#15000
b100 !
b100 &
1"
#20000
0"
#23000
b1000 #
b1000 %
#25000
b1000 !
b1000 &
1"
#30000
0"
#33000
b1100 #
b1100 %
#35000
b1100 !
b1100 &
1"
#40000
0"
#43000
1$
#45000
b0 !
b0 &
1"
#50000
0"
#53000
b10000 #
b10000 %
0$
#55000
b10000 !
b10000 &
1"
